{
    "name": "UMNP.GamedevKit.Tweeners",
    "rootNamespace": "UMNP.GamedevKit.Tweeners",
    "references": [
        "UnityEngine.UI",
        "DOTween.Modules"
    ],
    "includePlatforms": [],
    "excludePlatforms": [],
    "allowUnsafeCode": false,
    "overrideReferences": false,
    "precompiledReferences": [],
    "autoReferenced": true,
    "defineConstraints": [],
    "versionDefines": [],
    "noEngineReferences": false
}